INDEX VERSION 1.3+/Users/raschleremo/Developer/BBW/hotel/.metadata/.plugins/org.eclipse.wst.jsdt.core/indexes
1593261504.index
1443194833.index
4003142263.index
873094987.index
873094987.index
2506745587.index
2132086046.index
3577642414.index
